strain	virus	accession	first public	date	location	country	originating lab	submitting lab	host	city	division	region	authors
BS000685	Severe acute respiratory syndrome coronavirus 2	BS000685	2021-05-27	2020-04-06		Japan	unknown		Homo sapiens	Kanto			
BS000686	Severe acute respiratory syndrome coronavirus 2	BS000686	2021-05-27	2020-04-06		Japan			Homo sapiens	Kanto			
BS000687	Severe acute respiratory syndrome coronavirus 2	BS000687	2021-05-27	2020-04-06		Japan			Homo sapiens	Kanto			
BS000688	Severe acute respiratory syndrome coronavirus 2	BS000688	2021-05-27	2020-04-06		Japan			Homo sapiens	Kanto			
BS000689	Severe acute respiratory syndrome coronavirus 2	BS000689	2021-05-27	2020-04-06		Japan			Homo sapiens	Kanto			
BS000690	Severe acute respiratory syndrome coronavirus 2	BS000690	2021-05-27	2020-04-06		Japan			Homo sapiens	Kanto			
BS000691	Severe acute respiratory syndrome coronavirus 2	BS000691	2021-05-27	2018-04-06		Japan			Homo sapiens	Kanto			
BS000692	Severe acute respiratory syndrome coronavirus 2	BS000692	2021-05-27	2019-04-06		Japan			Homo sapiens	Kanto			
BS000693	Severe acute respiratory syndrome coronavirus 2	BS000693	2021-05-27	04-08		Japan			Homo sapiens	Kanto			
BS000694	Severe acute respiratory syndrome coronavirus 2	BS000694	2021-05-27	2020		Japan			Homo sapiens	Kanto			
