reference	msa
52	52
56	56
59	59
205	205
206	206
207	207
208	208
209	209
210	210
300	300
429	429
430	430
431	431
432	432
570	570
599	599
749	749
899	899
900	900
1299	1299
1299.1	1300
1299.2	1301
1299.3	1302
1300	1303
1311	1314
1311.1	1315
1311.2	1316
1311.3	1317
1311.4	1318
1311.5	1319
1311.6	1320
1312	1321
1450	1459
1451	1460
1501	1510