<?xml version="1.0" encoding="UTF-8"?>
<!-- Generator: Adobe Illustrator 19.0.0, SVG Export Plug-In . SVG Version: 6.00 Build 0)  -->
<svg version="1.1" id="Ebene_2" xmlns="http://www.w3.org/2000/svg" xmlns:xlink="http://www.w3.org/1999/xlink" x="0px" y="0px" viewBox="0 0 379.246 95.704" enable-background="new 0 0 379.246 95.704" xml:space="preserve">
<g>
	<g>
		<path fill="#343369" d="M243.683,1.146v17.524h-2.262V1.146H243.683z"/>
		<path fill="#343369" d="M253.615,18.671V1.146h2.47l5.616,8.866c1.3,2.054,2.314,3.9,3.146,5.694l0.052-0.026    c-0.208-2.34-0.26-4.472-0.26-7.202V1.146h2.132v17.524h-2.288l-5.564-8.893c-1.222-1.95-2.392-3.952-3.276-5.85l-0.078,0.026    c0.13,2.21,0.182,4.316,0.182,7.229v7.488H253.615z"/>
		<path fill="#343369" d="M276.391,15.915c1.014,0.624,2.496,1.144,4.056,1.144c2.314,0,3.666-1.222,3.666-2.99    c0-1.638-0.936-2.574-3.302-3.484c-2.86-1.014-4.628-2.496-4.628-4.966c0-2.73,2.262-4.758,5.668-4.758    c1.794,0,3.094,0.416,3.874,0.858l-0.624,1.846c-0.572-0.312-1.742-0.832-3.328-0.832c-2.392,0-3.302,1.43-3.302,2.626    c0,1.638,1.066,2.444,3.484,3.38c2.964,1.145,4.473,2.574,4.473,5.148c0,2.704-2.002,5.044-6.137,5.044    c-1.69,0-3.536-0.494-4.472-1.118L276.391,15.915z"/>
		<path fill="#343369" d="M298.829,3.07h-5.33V1.146h12.975V3.07h-5.356v15.601h-2.288V3.07z"/>
		<path fill="#343369" d="M316.638,1.146v17.524h-2.262V1.146H316.638z"/>
		<path fill="#343369" d="M329.898,3.07h-5.33V1.146h12.975V3.07h-5.355v15.601h-2.289V3.07z"/>
		<path fill="#343369" d="M347.734,1.146v10.374c0,3.926,1.742,5.59,4.082,5.59c2.6,0,4.264-1.716,4.264-5.59V1.146h2.289v10.218    c0,5.382-2.835,7.592-6.631,7.592c-3.588,0-6.292-2.054-6.292-7.488V1.146H347.734z"/>
		<path fill="#343369" d="M371.601,3.07h-5.33V1.146h12.975V3.07h-5.355v15.601h-2.289V3.07z"/>
	</g>
	<g>
		<path fill="#343369" d="M0,0.457l0.102-0.089C1.65,0.436,2.856,0.47,3.72,0.47c0.957,0,2.247-0.03,3.872-0.089    c0.601-0.017,1.037-0.025,1.308-0.025c2.141,0,3.593,0.389,4.354,1.168s1.143,1.701,1.143,2.768c0,0.711-0.186,1.409-0.559,2.095    s-0.922,1.271-1.65,1.758s-1.731,0.853-3.009,1.098c0.237,0.33,0.665,0.901,1.282,1.714l1.803,2.387    c0.584,0.787,1.21,1.619,1.879,2.495s1.1,1.371,1.295,1.485s0.362,0.184,0.501,0.209s0.362,0.038,0.667,0.038l0.102,0.102v0.597    l-0.114,0.114c-0.406-0.051-0.889-0.076-1.447-0.076c-0.601,0-1.257,0.025-1.968,0.076c-0.584-0.711-1.502-1.942-2.755-3.694    c-1.456-2.031-2.945-3.915-4.469-5.649l0.127-0.394c0.44,0.025,0.783,0.038,1.028,0.038c1.464,0,2.611-0.351,3.44-1.054    s1.244-1.676,1.244-2.92c0-1.117-0.373-1.961-1.117-2.533S8.925,1.32,7.655,1.32c-0.889,0-1.727,0.123-2.514,0.368    c-0.127,0.186-0.19,1.773-0.19,4.761v5.878l0.013,2.476c0.008,0.957,0.034,1.574,0.076,1.854s0.104,0.465,0.184,0.559    s0.235,0.171,0.463,0.235s0.792,0.112,1.688,0.146l0.102,0.076v0.635l-0.102,0.102c-0.042,0-0.787-0.025-2.234-0.076    c-0.601-0.017-1.071-0.025-1.409-0.025c-0.262,0-1.473,0.034-3.631,0.102L0,18.307v-0.635l0.102-0.076    c0.787-0.034,1.312-0.076,1.574-0.127s0.438-0.116,0.527-0.197s0.161-0.252,0.216-0.514s0.087-0.846,0.095-1.752l0.013-2.679    V6.449L2.501,3.974c-0.008-0.965-0.032-1.587-0.07-1.866S2.334,1.642,2.253,1.549S2.019,1.379,1.79,1.32s-0.792-0.106-1.688-0.14    L0,1.092V0.457z"/>
		<path fill="#343369" d="M21.343,9.56c0-1.27,0.182-2.455,0.546-3.555s0.984-2.118,1.86-3.053s1.932-1.659,3.167-2.171    s2.632-0.768,4.189-0.768c2.886,0,5.184,0.785,6.894,2.355s2.564,3.713,2.564,6.43c0,1.913-0.419,3.631-1.257,5.154    s-2.038,2.708-3.599,3.555s-3.315,1.27-5.262,1.27c-1.379,0-2.649-0.23-3.809-0.692s-2.147-1.149-2.964-2.063    s-1.409-1.972-1.777-3.174S21.343,10.55,21.343,9.56z M23.984,8.722c0,1.033,0.167,2.144,0.501,3.333s0.833,2.209,1.498,3.06    s1.43,1.483,2.298,1.898s1.855,0.622,2.964,0.622c1.312,0,2.48-0.3,3.504-0.901s1.803-1.534,2.336-2.799s0.8-2.685,0.8-4.259    c0-1.709-0.305-3.254-0.914-4.634s-1.477-2.382-2.603-3.009s-2.374-0.939-3.745-0.939c-2.057,0-3.677,0.643-4.862,1.93    S23.984,6.208,23.984,8.722z"/>
		<path fill="#343369" d="M45.504,1.181l-0.102-0.089V0.457l0.102-0.089c1.447,0.068,2.564,0.102,3.352,0.102    c0.296,0,1.468-0.034,3.517-0.102c0.66-0.017,1.138-0.025,1.435-0.025c1.143,0,2.048,0.114,2.717,0.343s1.206,0.633,1.612,1.212    s0.609,1.238,0.609,1.974c0,0.939-0.338,1.811-1.016,2.615s-1.777,1.379-3.301,1.727c0.914,0.084,1.667,0.208,2.26,0.368    s1.104,0.408,1.536,0.743s0.772,0.768,1.022,1.301s0.375,1.151,0.375,1.854c0,0.55-0.084,1.109-0.254,1.676    s-0.48,1.13-0.933,1.688s-1.001,1.037-1.644,1.435s-1.301,0.686-1.974,0.863c-0.673,0.178-1.509,0.267-2.507,0.267    c-0.203,0-0.813-0.021-1.828-0.063c-1.125-0.025-1.735-0.038-1.828-0.038c-0.576,0-1.282,0.034-2.12,0.102l-0.102-0.102v-0.419    l0.102-0.127c0.491-0.22,0.774-0.373,0.851-0.457s0.138-0.833,0.184-2.247s0.07-2.493,0.07-3.237V7.16l-0.013-2.882    c0-0.626-0.008-1.136-0.025-1.53s-0.04-0.675-0.07-0.844s-0.078-0.288-0.146-0.355s-0.163-0.125-0.286-0.171    s-0.332-0.087-0.628-0.121L45.504,1.181z M50.062,7.846c0.423,0.034,0.901,0.051,1.435,0.051c1.752,0,2.971-0.313,3.656-0.939    s1.028-1.485,1.028-2.577c0-0.635-0.131-1.174-0.394-1.619s-0.675-0.785-1.238-1.022s-1.327-0.355-2.292-0.355    c-0.787,0-1.481,0.063-2.082,0.19c-0.076,0.762-0.114,2.09-0.114,3.986V7.846z M50.087,17.101c0.652,0.152,1.32,0.229,2.006,0.229    c1.21,0,2.158-0.195,2.844-0.584s1.191-0.929,1.517-1.619s0.489-1.441,0.489-2.253c0-1.219-0.345-2.194-1.035-2.926    s-2.182-1.098-4.475-1.098c-0.381,0-0.838,0.017-1.371,0.051v4.329L50.087,17.101z"/>
		<path fill="#343369" d="M65.756,0.457l0.102-0.089c2.903,0.051,4.761,0.076,5.573,0.076c2.776,0,5.248-0.025,7.414-0.076    l0.063,0.089c-0.211,0.813-0.368,2.086-0.47,3.821L78.362,4.38H77.74l-0.114-0.102c0.008-0.076,0.013-0.144,0.013-0.203    c0-0.719-0.055-1.405-0.165-2.057c-0.533-0.237-1.271-0.392-2.215-0.463s-1.652-0.108-2.126-0.108    c-0.668,0-1.523,0.046-2.564,0.14l-0.051,2.031l-0.038,2.323L70.44,8.519c0.914,0.051,1.756,0.076,2.526,0.076    c0.779,0,1.43-0.025,1.955-0.076s0.832-0.104,0.92-0.159s0.157-0.161,0.203-0.317s0.087-0.434,0.121-0.832l0.051-0.787    l0.102-0.102h0.584l0.102,0.102c-0.017,0.922-0.038,1.849-0.063,2.78l0.063,2.856l-0.102,0.102h-0.584l-0.102-0.102l-0.089-0.762    c-0.076-0.592-0.131-0.946-0.165-1.06s-0.112-0.214-0.235-0.298s-0.438-0.152-0.946-0.203s-1.206-0.076-2.095-0.076    c-0.491,0-1.24,0.021-2.247,0.063c-0.042,0.711-0.063,1.896-0.063,3.555c0,1.777,0.021,3.085,0.063,3.923h2.336    c2.057,0,3.343-0.025,3.859-0.076s1.007-0.173,1.473-0.368c0.076-0.195,0.201-0.646,0.375-1.352s0.273-1.149,0.298-1.327    l0.127-0.089h0.609l0.102,0.089c-0.076,0.364-0.15,0.999-0.222,1.904s-0.108,1.68-0.108,2.323L79.2,18.408    c-1.617-0.051-3.732-0.076-6.348-0.076l-3.453-0.025c-0.804,0-1.642,0.034-2.514,0.102l-0.102-0.102v-0.419l0.102-0.127    c0.5-0.254,0.785-0.413,0.857-0.476s0.131-0.804,0.178-2.222s0.07-2.499,0.07-3.244V7.16l-0.013-2.882    c0-0.626-0.008-1.136-0.025-1.53s-0.046-0.675-0.089-0.844s-0.091-0.288-0.146-0.355s-0.144-0.125-0.267-0.171    s-0.332-0.087-0.628-0.121l-0.965-0.076l-0.102-0.089V0.457z"/>
		<path fill="#343369" d="M85.145,0.457l0.102-0.089c1.549,0.068,2.755,0.102,3.618,0.102c0.957,0,2.247-0.03,3.872-0.089    c0.601-0.017,1.037-0.025,1.308-0.025c2.141,0,3.593,0.389,4.354,1.168s1.143,1.701,1.143,2.768c0,0.711-0.186,1.409-0.559,2.095    s-0.922,1.271-1.65,1.758s-1.731,0.853-3.009,1.098c0.237,0.33,0.665,0.901,1.282,1.714l1.803,2.387    c0.584,0.787,1.21,1.619,1.879,2.495s1.1,1.371,1.295,1.485s0.362,0.184,0.501,0.209s0.362,0.038,0.667,0.038l0.102,0.102v0.597    l-0.114,0.114c-0.406-0.051-0.889-0.076-1.447-0.076c-0.601,0-1.257,0.025-1.968,0.076c-0.584-0.711-1.502-1.942-2.755-3.694    c-1.456-2.031-2.945-3.915-4.469-5.649l0.127-0.394c0.44,0.025,0.783,0.038,1.028,0.038c1.464,0,2.611-0.351,3.44-1.054    s1.244-1.676,1.244-2.92c0-1.117-0.373-1.961-1.117-2.533S94.069,1.32,92.8,1.32c-0.889,0-1.727,0.123-2.514,0.368    c-0.127,0.186-0.19,1.773-0.19,4.761v5.878l0.013,2.476c0.008,0.957,0.034,1.574,0.076,1.854s0.104,0.465,0.184,0.559    s0.235,0.171,0.463,0.235s0.792,0.112,1.688,0.146l0.102,0.076v0.635l-0.102,0.102c-0.042,0-0.787-0.025-2.234-0.076    c-0.601-0.017-1.071-0.025-1.409-0.025c-0.262,0-1.473,0.034-3.631,0.102l-0.102-0.102v-0.635l0.102-0.076    c0.787-0.034,1.312-0.076,1.574-0.127s0.438-0.116,0.527-0.197s0.161-0.252,0.216-0.514s0.087-0.846,0.095-1.752l0.013-2.679    V6.449l-0.025-2.476c-0.008-0.965-0.032-1.587-0.07-1.866s-0.097-0.465-0.178-0.559s-0.235-0.169-0.463-0.229    s-0.792-0.106-1.688-0.14l-0.102-0.089V0.457z"/>
		<path fill="#343369" d="M121.202,0.368l0.114,0.114c-0.076,0.762-0.114,2.09-0.114,3.986L121.1,4.57h-0.597l-0.102-0.114    l-0.14-1.168c-0.068-0.626-0.121-1.009-0.159-1.149s-0.1-0.241-0.184-0.305s-0.36-0.116-0.825-0.159s-0.986-0.063-1.562-0.063    h-2.399c-0.068,1.913-0.102,3.017-0.102,3.313v7.401l0.025,2.476c0.008,0.957,0.032,1.576,0.07,1.86s0.097,0.47,0.178,0.559    s0.235,0.165,0.463,0.229s0.795,0.112,1.701,0.146l0.089,0.076v0.635l-0.089,0.102c-2.167-0.068-3.377-0.102-3.631-0.102    c-0.271,0-1.477,0.034-3.618,0.102l-0.102-0.102v-0.635l0.102-0.076c0.795-0.034,1.322-0.076,1.581-0.127s0.432-0.116,0.521-0.197    s0.163-0.252,0.222-0.514s0.089-0.846,0.089-1.752l0.025-2.679V4.926c0-0.135-0.034-1.24-0.102-3.313h-1.892    c-0.779,0-1.452,0.017-2.019,0.051s-0.895,0.121-0.984,0.26s-0.171,0.595-0.248,1.365l-0.127,1.168l-0.114,0.114h-0.584    l-0.102-0.102c-0.017-2.04-0.055-3.369-0.114-3.986l0.114-0.114c1.473,0.068,3.923,0.102,7.351,0.102    C117.334,0.47,119.788,0.436,121.202,0.368z"/>
		<path fill="#343369" d="M141.684,9.115c2.125-1.921,3.658-3.354,4.602-4.297s1.722-1.722,2.336-2.336s0.979-1.009,1.098-1.187    V0.47l0.127-0.102c0.643,0.034,1.346,0.051,2.107,0.051c0.169,0,0.838-0.013,2.006-0.038l0.127,0.114v0.597l-0.102,0.102    c-0.787,0-1.325,0.044-1.612,0.133s-0.709,0.36-1.263,0.813s-1.191,1.009-1.911,1.669l-5.142,4.697l7.643,7.071    c1.227,1.143,1.915,1.765,2.063,1.866s0.455,0.161,0.92,0.178l0.089,0.102v0.533l-0.089,0.102    c-0.491-0.034-0.999-0.051-1.523-0.051c-0.313,0-0.999,0.017-2.057,0.051c-0.77-0.728-1.445-1.371-2.025-1.93    s-3.045-2.827-7.395-6.805v2.704l0.013,2.476c0.008,0.957,0.034,1.574,0.076,1.854s0.104,0.465,0.184,0.559    s0.235,0.171,0.463,0.235s0.792,0.112,1.688,0.146l0.102,0.076v0.635l-0.102,0.102c-0.042,0-0.787-0.025-2.234-0.076    c-0.601-0.017-1.071-0.025-1.409-0.025c-0.262,0-1.473,0.034-3.631,0.102l-0.102-0.102v-0.635l0.102-0.076    c0.787-0.034,1.312-0.076,1.574-0.127s0.438-0.116,0.527-0.197s0.161-0.252,0.216-0.514s0.087-0.846,0.095-1.752l0.013-2.679    V6.449l-0.025-2.476c-0.008-0.965-0.032-1.587-0.07-1.866s-0.097-0.465-0.178-0.559s-0.235-0.169-0.463-0.229    s-0.792-0.106-1.688-0.14l-0.102-0.089V0.457l0.102-0.089l1.587,0.051c1.041,0.034,1.722,0.051,2.044,0.051    c0.288,0,1.502-0.034,3.644-0.102l0.102,0.089v0.635l-0.102,0.089c-0.584,0.017-1.035,0.042-1.352,0.076s-0.548,0.097-0.692,0.19    s-0.239,0.311-0.286,0.654s-0.07,0.819-0.07,1.428l-0.025,2.92V9.115z"/>
		<path fill="#343369" d="M159.446,9.56c0-1.27,0.182-2.455,0.546-3.555s0.984-2.118,1.86-3.053s1.932-1.659,3.167-2.171    s2.632-0.768,4.189-0.768c2.886,0,5.184,0.785,6.894,2.355s2.564,3.713,2.564,6.43c0,1.913-0.419,3.631-1.257,5.154    s-2.038,2.708-3.599,3.555s-3.315,1.27-5.262,1.27c-1.379,0-2.649-0.23-3.809-0.692s-2.147-1.149-2.964-2.063    s-1.409-1.972-1.777-3.174S159.446,10.55,159.446,9.56z M162.087,8.722c0,1.033,0.167,2.144,0.501,3.333s0.833,2.209,1.498,3.06    s1.43,1.483,2.298,1.898s1.855,0.622,2.964,0.622c1.312,0,2.48-0.3,3.504-0.901s1.803-1.534,2.336-2.799s0.8-2.685,0.8-4.259    c0-1.709-0.305-3.254-0.914-4.634s-1.477-2.382-2.603-3.009s-2.374-0.939-3.745-0.939c-2.057,0-3.677,0.643-4.862,1.93    S162.087,6.208,162.087,8.722z"/>
		<path fill="#343369" d="M200.86,16.161l-0.482,1.181c-1.879,0.957-3.885,1.435-6.018,1.435c-3.055,0-5.537-0.868-7.446-2.603    s-2.863-4.003-2.863-6.805c0-1.93,0.476-3.616,1.428-5.059s2.209-2.522,3.771-3.237S192.566,0,194.513,0    c1.125,0,2.239,0.119,3.339,0.355s2.019,0.521,2.755,0.851l0.089,0.127c-0.195,0.474-0.376,1.646-0.546,3.517l-0.089,0.102h-0.597    l-0.102-0.102l-0.127-2.158c-0.618-0.491-1.365-0.874-2.241-1.149s-1.788-0.413-2.736-0.413c-1.43,0-2.712,0.307-3.847,0.92    s-2.014,1.502-2.641,2.666s-0.939,2.588-0.939,4.272c0,1.693,0.368,3.178,1.104,4.456s1.741,2.26,3.015,2.945    s2.761,1.028,4.462,1.028c0.753,0,1.477-0.072,2.171-0.216s1.271-0.322,1.733-0.533s0.903-0.47,1.327-0.774L200.86,16.161z"/>
		<path fill="#343369" d="M206.233,0.368c2.158,0.068,3.369,0.102,3.631,0.102c0.279,0,1.494-0.034,3.644-0.102l0.102,0.089v0.635    l-0.102,0.089c-0.584,0.017-1.035,0.042-1.352,0.076s-0.548,0.097-0.692,0.19s-0.239,0.311-0.286,0.654s-0.07,0.819-0.07,1.428    l-0.025,2.92v1.777c1.854,0.051,3.61,0.076,5.269,0.076c2.268,0,3.995-0.025,5.18-0.076V6.449l-0.025-2.476    c-0.008-0.965-0.034-1.587-0.076-1.866s-0.102-0.465-0.178-0.559s-0.229-0.169-0.457-0.229s-0.795-0.106-1.701-0.14l-0.089-0.089    V0.457l0.089-0.089c2.167,0.068,3.381,0.102,3.644,0.102c0.288,0,1.502-0.034,3.644-0.102l0.102,0.089v0.635l-0.102,0.089    c-0.592,0.017-1.047,0.042-1.365,0.076s-0.548,0.097-0.692,0.19s-0.237,0.311-0.279,0.654s-0.068,0.819-0.076,1.428l-0.025,2.92    v5.878l0.025,2.476c0.008,0.957,0.034,1.574,0.076,1.854s0.104,0.465,0.184,0.559s0.233,0.171,0.457,0.235    s0.789,0.112,1.695,0.146l0.102,0.076v0.635l-0.102,0.102c-2.167-0.068-3.381-0.102-3.644-0.102c-0.271,0-1.485,0.034-3.644,0.102    l-0.089-0.102v-0.635l0.089-0.076c0.795-0.034,1.325-0.076,1.587-0.127s0.436-0.116,0.521-0.197s0.157-0.252,0.216-0.514    s0.089-0.846,0.089-1.752l0.025-2.679V9.433c-2.505-0.051-4.261-0.076-5.269-0.076c-1.033,0-2.759,0.025-5.18,0.076v2.895    l0.013,2.476c0.008,0.957,0.034,1.574,0.076,1.854s0.104,0.465,0.184,0.559s0.235,0.171,0.463,0.235s0.792,0.112,1.688,0.146    l0.102,0.076v0.635l-0.102,0.102c-2.158-0.068-3.373-0.102-3.644-0.102c-0.262,0-1.473,0.034-3.631,0.102l-0.102-0.102v-0.635    l0.102-0.076c0.787-0.034,1.312-0.076,1.574-0.127s0.438-0.116,0.527-0.197s0.161-0.252,0.216-0.514s0.087-0.846,0.095-1.752    l0.013-2.679V6.449l-0.025-2.476c-0.008-0.965-0.032-1.587-0.07-1.866s-0.097-0.465-0.178-0.559s-0.235-0.169-0.463-0.229    s-0.792-0.106-1.688-0.14l-0.102-0.089V0.457L206.233,0.368z"/>
	</g>
</g>
<g>
	<g>
		<path fill="#F3F2F5" d="M339.849,94.161c-4.75-2.317-12.764-9.883-18.212-17.22c-1.309-1.743-3.021-3.748-3.806-4.427    l-1.432-1.221l0.14-5.892c0.14-5.385,0.226-5.925,1.1-6.083c0.523-0.104,1.24,0.21,1.588,0.68    c0.577,0.783,0.856,0.662,3.388-1.551c16.832-14.658,31.622-23.286,40.002-23.303c4.103-0.017,2.898,2.004-3.055,5.159    c-1.903,0.994-4.016,2.301-4.681,2.894c-0.68,0.61-2.461,1.986-3.946,3.067c-1.484,1.098-4.923,3.608-7.647,5.595    c-6.932,5.073-8.941,6.659-13.376,10.581c-6.268,5.525-6.128,4.688-1.833,10.371c5.535,7.302,13.043,14.745,19.015,18.805    c2.775,1.9,3.125,2.371,2.34,3.312C348.352,96.235,343.253,95.834,339.849,94.161L339.849,94.161z M230.859,80.88    c-1.641-0.802-4.121-2.58-5.535-3.939c-1.415-1.342-2.706-2.458-2.881-2.458c-0.174,0-1.239,0.454-2.374,1.01    c-1.153,0.559-3.475,1.221-5.169,1.499c-2.601,0.419-3.212,0.367-3.858-0.278c-0.699-0.68-0.681-0.905,0.123-2.406    c0.488-0.906,1.868-2.247,3.055-3.015c3.684-2.318,3.684-2.248-0.436-6.676c-2.043-2.178-4.313-4.897-5.064-6.03    c-0.751-1.134-1.868-2.841-2.497-3.801c-1.467-2.23-1.572-5.194-0.191-5.629c0.541-0.157,1.378-0.087,1.851,0.174    c1.781,0.96,8.556,7.321,11.978,11.26c1.956,2.232,3.911,4.044,4.348,4.026c0.454-0.034,1.747-0.627,2.863-1.359    c5.797-3.747,12.947-7.818,13.803-7.835c1.361-0.053,2.06,2.126,1.484,4.497c-0.419,1.673-2.104,2.833-7.219,6.075    c-3.125,1.97-5.902,3.643-6.164,3.748c-0.768,0.278,1.118,2.178,5.046,5.088c1.973,1.463,3.946,3.19,4.383,3.852    c0.716,1.115,0.716,1.308-0.018,2.44C237.25,82.849,234.631,82.762,230.859,80.88L230.859,80.88z M249.979,75.442    c-3.527-0.627-6.727-1.726-7.408-3.208c-0.297-0.68,0.302-3.398,0.127-6.048l-0.314-4.811l0.677-1.185    c4.243-3.05,15.282-8.854,21.865-12.097c9.48-4.67,15.697-6.048,17.512-3.869c0.821,0.993,0.315,1.569-2.863,3.173    c-3.981,2.004-14.213,9.097-18.072,12.548c-3.266,2.893-5.186,5.735-5.186,7.617c0,1.238,2.742,4.41,4.331,5.001    C264.733,74.117,255.951,76.487,249.979,75.442L249.979,75.442z"/>
		<path fill="#ECEBF1" d="M340.827,94.091c-1.345-0.54-3.23-1.568-4.191-2.266c-3.509-2.614-10.581-9.864-14.318-14.675    c-2.13-2.72-4.207-5.247-4.627-5.596c-0.594-0.505-0.75-1.741-0.75-5.942c0-5.63,0.366-6.589,1.972-5.125    c0.891,0.802,1.03,0.766,2.863-0.818c6.792-5.805,10.634-8.942,13.882-11.33c5.169-3.817,15.103-9.412,19.538-11.034    c3.44-1.255,7.63-1.777,8.382-1.028c0.523,0.523-0.77,1.709-3.109,2.841c-1.222,0.576-6.285,4.113-11.243,7.827    c-4.96,3.712-9.988,7.424-11.193,8.245c-1.205,0.836-3.72,2.875-5.604,4.566c-1.885,1.69-4.471,4.009-5.762,5.141    c-1.293,1.15-2.34,2.422-2.34,2.824c0,0.418,1.763,3.032,3.912,5.839c5.307,6.937,10.388,12.078,18.961,19.243    c0.821,0.696,1.274,1.446,1.082,1.777C347.723,95.468,343.55,95.207,340.827,94.091L340.827,94.091z M231.837,81.054    c-1.188-0.418-3.544-2.092-5.5-3.886c-1.886-1.744-3.597-3.173-3.807-3.173c-0.227,0-1.396,0.489-2.637,1.081    c-2.933,1.429-7.787,1.83-8.224,0.697c-0.436-1.168,0.908-2.911,3.475-4.532c1.223-0.783,2.357-1.725,2.497-2.091    c0.14-0.367-1.274-2.283-3.265-4.427c-3.597-3.835-6.845-8.21-6.845-9.221c0-0.313-0.331-0.836-0.733-1.185    c-1.048-0.855-1.013-4.427,0.053-4.427c1.676,0,7.142,4.723,12.799,11.068c2.06,2.3,4.05,4.183,4.435,4.183    c0.384,0,2.531-1.168,4.767-2.597c6.268-4.026,11.793-7.017,12.579-6.72c1.083,0.419,0.925,4.496-0.21,5.629    c-0.488,0.506-4.478,3.095-7.498,4.96c-3.021,1.865-5.483,3.573-5.483,3.818c0,0.522,1.257,1.62,5.78,5.037    c4.051,3.067,4.854,4.164,4.068,5.612C237.442,82.082,234.928,82.152,231.837,81.054L231.837,81.054z M249.141,74.5    c-2.951-0.436-5.434-1.149-6.133-2.476c-0.873-1.603-1.432-8.923-0.803-10.265c0.628-1.359,13.903-8.925,22.249-13.089    c8.765-4.392,14.196-5.91,16.536-4.653c1.448,0.766,1.187,1.289-1.379,2.718c-5.256,2.963-15.156,9.883-18.404,12.881    c-5.29,4.897-6.687,8.558-4.138,10.945c0.664,0.627,1.222,1.673,1.222,2.301C258.29,74.849,255.269,75.389,249.141,74.5    L249.141,74.5z"/>
		<path fill="#E6E5EB" d="M340.966,93.778c-4.889-1.761-12.328-8.541-18.893-17.204c-1.588-2.091-3.404-4.288-4.016-4.897    c-1.031-0.976-1.117-1.516-1.117-6.031c0-4.008,0.14-5.019,0.75-5.246c0.419-0.158,1.135,0.036,1.606,0.452    c0.769,0.68,1.084,0.541,3.544-1.69c12.502-11.276,24.148-18.859,34.206-22.258c2.393-0.818,5.431-0.662,5.116,0.244    c-0.07,0.245-1.728,1.499-3.666,2.79c-9.987,6.587-34.661,26.283-34.661,27.66c0,0.227,1.695,2.701,3.755,5.491    c2.34,3.155,6.862,8.104,11.855,12.985c4.454,4.34,7.928,8.035,7.734,8.228C346.571,94.91,343.374,94.649,340.966,93.778    L340.966,93.778z M232.466,81.089c-2.166-0.784-4.366-2.353-7.805-5.543c-2.305-2.144-2.34-2.161-3.597-1.325    c-3.37,2.198-9.097,2.633-9.097,0.697c0-0.976,1.1-2.092,3.946-3.99c0.942-0.629,1.798-1.516,1.885-1.987    c0.087-0.489-1.222-2.284-3.23-4.411c-5.308-5.629-8.381-10.685-7.822-12.915l0.332-1.273l2.078,1.132    c1.135,0.61,4.994,4.096,8.556,7.723l6.478,6.587l4.121-2.701c7.368-4.846,12.388-7.54,13.138-6.911    c0.908,0.749,0.873,3.398-0.035,4.688c-0.401,0.575-4.426,3.304-7.621,5.273c-3.195,1.987-5.901,3.678-6.024,3.764    c-0.401,0.333,2.444,2.928,6.129,5.595c3.789,2.737,4.82,4.306,3.684,5.647C236.849,82.031,234.998,82.031,232.466,81.089    L232.466,81.089z M249.019,73.995c-2.183-0.243-3.439-0.662-4.156-1.376c-1.082-1.081-2.746-4.27-2.816-8.768l-0.035-2.509    l6.552-3.451c16.343-10.127,28.059-15.321,31.534-13.961c1.868,0.732,1.694,1.342-0.733,2.579    c-3.807,1.935-15.225,9.97-18.631,13.107c-3.387,3.119-5.395,6.309-5.395,8.54c0,0.68,0.541,1.97,1.222,2.877    c1.153,1.552,1.17,1.725,0.419,2.562C256.107,74.553,254.606,74.641,249.019,73.995L249.019,73.995z"/>
		<path fill="#E0DEE8" d="M341.735,93.655c-1.118-0.227-3.004-1.011-4.19-1.743c-2.951-1.847-12.275-11.33-16.571-16.837    l-3.544-4.567v-5.141c0-2.824,0.14-5.141,0.331-5.141c0.176,0,0.734,0.365,1.206,0.801c0.838,0.749,1.047,0.662,3.248-1.256    c10.32-8.94,16.134-13.246,23.555-17.393c11.681-6.536,19.87-7.948,11.471-1.97c-6.583,4.688-24.376,18.458-28.233,21.839    c-5.938,5.247-5.868,4.985-2.533,9.604c3.458,4.759,11.123,13.352,13.551,15.198c1.902,1.447,5.482,5.77,5.482,6.606    C345.506,94.231,344.667,94.231,341.735,93.655L341.735,93.655z M232.868,80.967c-2.619-0.906-5.186-2.718-8.049-5.699    c-1.991-2.057-2.34-2.109-4.715-0.715c-1.222,0.715-2.689,1.08-4.591,1.115c-2.654,0.053-2.794-0.017-2.794-1.15    c0-0.906,0.646-1.656,2.567-2.964c1.415-0.958,2.689-2.021,2.829-2.352c0.122-0.35-1.536-2.563-3.701-4.916    c-5.64-6.17-8.905-12.915-6.269-12.915c1.205,0,7.194,5.194,10.983,9.534c2.078,2.37,4.085,4.427,4.47,4.566    c0.384,0.157,2.27-0.696,4.173-1.882c12.799-7.878,13.872-8.532,13.872-5.535c0,1.063-0.122,2.266-0.296,2.684    c-0.158,0.419-4.129,3.112-7.499,5.204c-3.352,2.074-6.111,4.026-6.111,4.341c0,0.313,1.589,1.777,3.51,3.24    c5.675,4.34,6.845,5.438,6.845,6.432c0,0.733-1.815,2.039-2.619,1.901C235.416,81.838,234.247,81.437,232.868,80.967    L232.868,80.967z M249.176,73.507c-1.623-0.174-3.335-0.488-3.789-0.696c-1.118-0.489-2.746-2.649-3.148-7.233l-0.332-3.748    l2.659-1.238c0.908-0.68,4.417-2.892,7.805-4.914c14.423-8.628,24.375-12.707,27.814-11.382c1.205,0.454,0.943,0.907-1.327,2.144    c-3.754,2.075-14.842,9.935-17.618,12.498c-3.631,3.364-5.255,5.595-5.954,8.227c-0.506,1.883-0.471,2.457,0.261,3.991    C256.946,74.083,256.317,74.308,249.176,73.507L249.176,73.507z"/>
		<path fill="#DAD9E3" d="M339.603,92.836c-3.58-1.325-12.169-9.517-17.688-16.873c-1.728-2.3-3.439-4.357-3.806-4.565    c-0.507-0.297-0.681-1.691-0.681-5.544c0-5.281,0.157-5.664,1.973-4.532c0.856,0.54,1.258,0.315,3.563-1.899    c3.072-2.946,9.865-8.541,13.671-11.225c8.153-5.77,21.424-12.183,23.083-11.155c0.75,0.471,0.192,1.098-2.619,3.015    c-1.363,0.924-3.247,2.389-4.19,3.26c-0.961,0.871-5.519,4.427-10.163,7.895c-8.835,6.606-19.555,15.722-19.311,16.436    c0.612,1.761,8.993,12.044,13.427,16.471c7.072,7.059,6.861,6.797,6.198,8.053C342.538,93.15,341.175,93.411,339.603,92.836    L339.603,92.836z M231.418,80.218c-1.362-0.646-3.841-2.406-5.483-3.939c-1.659-1.517-3.247-2.772-3.545-2.772    c-0.296,0-1.379,0.436-2.392,0.959c-2.585,1.324-5.587,1.743-6.705,0.906c-1.24-0.941-0.699-1.899,2.165-3.765    c1.361-0.888,2.602-1.934,2.759-2.319c0.14-0.4-1.449-2.596-3.929-5.35c-4.504-5.054-7.491-10.544-6.356-11.695    c0.925-0.906,5.483,2.597,10.773,8.296c2.602,2.807,5.082,5.09,5.518,5.09c0.454,0,2.584-1.168,4.749-2.614    c1.59-1.054,12.712-6.895,12.126-6.895c-0.314,0,0.541,0.925,0.541,2.127c0,2.597-1.614,3.792-7.987,7.661    c-2.567,1.569-5.064,3.172-5.553,3.59c-0.82,0.697-0.82,0.767,0,1.691c0.489,0.523,2.706,2.284,4.96,3.922    c4.487,3.259,5.447,4.444,4.504,5.559C236.709,81.698,234.247,81.524,231.418,80.218L231.418,80.218z M246.12,72.792    c-1.868-0.818-3.497-2.684-3.724-7.878l-0.14-3.434l7.845-4.287c12.868-8.035,25.841-13.822,29.124-13.002    c0.681,0.174,1.24,0.488,1.24,0.696c0,0.209-1.379,1.204-3.073,2.214c-5.553,3.312-12.869,8.593-16.536,11.921    c-4.365,3.975-5.901,6.763-6.146,11.103l-0.175,3.137l-3.422,0.104C249.054,73.421,247.081,73.193,246.12,72.792L246.12,72.792z"/>
		<path fill="#D4D3DC" d="M336.67,90.884c-3.684-2.457-10.388-9.343-14.702-15.041c-1.972-2.614-3.807-4.897-4.068-5.054    c-0.262-0.157-0.472-2.493-0.472-5.177c0-4.026,0.122-4.897,0.733-4.897c0.402,0,0.734,0.227,0.734,0.488    c0,1.115,1.885,0.33,4.191-1.761c8.433-7.599,15.137-12.532,22.681-16.714c3.369-1.864,12.083-5.629,13.059-5.629    c1.239,0,0.244,1.394-2.111,2.928c-1.414,0.941-3.58,2.631-4.802,3.747c-2.026,1.882-8.014,6.501-14.458,11.155    c-3.108,2.248-13.724,11.73-13.968,12.48c-0.35,1.028,8.644,12.288,13.829,17.325c2.881,2.788,5.238,5.368,5.238,5.734    C342.555,93.22,340.372,93.377,336.67,90.884L336.67,90.884z M232.343,80.583c-1.117-0.4-3.824-2.283-6.023-4.2l-3.98-3.451    l-1.729,1.063c-0.943,0.576-2.933,1.186-4.435,1.343c-2.305,0.226-2.759,0.138-3.039-0.61c-0.349-0.89-0.174-1.081,3.755-4.096    c0.82-0.627,1.483-1.447,1.483-1.848c0-0.383-1.571-2.387-3.492-4.462c-3.79-4.061-5.535-6.57-6.042-8.61    c-0.174-0.714-0.472-1.69-0.646-2.161c-0.908-2.37,6.129,1.865,8.888,5.351c0.681,0.87,2.444,2.858,3.928,4.427l2.707,2.858    l1.641-0.836c0.908-0.471,2.864-1.656,4.348-2.667c4.295-2.894,11.008-6.58,11.497-6.285c0.594,0.367,0.559,2.997-0.053,4.131    c-0.262,0.505-4.338,3.269-7.743,5.378c-3.387,2.091-6.164,3.956-6.164,4.13c0,0.54,3.003,3.259,6.374,5.77    c3.527,2.648,4.277,3.589,3.823,4.757C237.058,81.56,235.138,81.56,232.343,80.583L232.343,80.583z M246.137,72.322    c-0.855-0.382-2.676-1.098-2.834-1.603c-0.558-1.777-1.274-8.001-1.012-8.698c0.559-1.412,20.486-12.478,26.771-15.042    c8.329-3.398,13.41-3.678,8.574-0.453c-17.321,11.504-21.948,15.897-23.24,22.083c-0.314,1.482-0.751,2.963-0.96,3.33    C252.825,72.896,247.988,73.176,246.137,72.322L246.137,72.322z"/>
		<path fill="#C9C7D4" d="M336.356,90.292c-3.493-2.284-9.307-8.174-13.427-13.595c-1.642-2.162-3.44-4.375-3.964-4.933    c-0.82-0.836-0.995-1.778-1.083-5.629c-0.105-4.322,0.349-5.908,1.257-4.462c0.558,0.924,1.256,0.558,4.103-2.092    c6.793-6.361,15.802-13.089,21.075-15.739c1.344-0.679,3.387-1.726,4.557-2.318c2.637-1.377,3.423-0.871,2.411,1.552    c-0.682,1.62-2.864,3.468-14.213,11.991c-5.448,4.096-13.741,11.625-13.725,12.478c0.035,1.448,7.997,11.522,13.41,16.942    c2.916,2.928,5.307,5.629,5.307,5.996c0,0.68-1.431,1.709-2.356,1.709C339.464,92.192,337.945,91.338,336.356,90.292    L336.356,90.292z M232.868,80.479c-2.619-0.907-5.186-2.72-8.049-5.7c-1.973-2.038-2.357-2.108-4.557-0.819    c-1.467,0.854-3.492,1.221-5.954,1.063c-1.572-0.086-0.891-1.499,1.554-3.259c1.327-0.941,2.549-2.057,2.706-2.476    c0.262-0.679-0.716-1.969-5.046-6.587c-1.92-2.056-4.016-5.542-4.016-6.71c0-0.593,0.367-1.204,0.803-1.378    c1.292-0.505,3.772,1.412,8.574,6.606c2.497,2.701,4.784,4.916,5.116,4.916c0.314,0,2.113-0.994,3.999-2.196    c4.889-3.086,12.195-7.313,12.719-7.313c0.245,0,0.437,0.872,0.437,1.953c0,1.777-1.317,2.781-3.413,4.297    c-1.275,0.924-4.155,2.754-6.391,4.062c-2.444,1.446-4.068,2.718-4.086,3.207c-0.018,0.696,1.624,2.127,8.975,7.809    c1.588,1.219,1.728,2.213,0.401,2.911C235.486,81.472,235.888,81.524,232.868,80.479L232.868,80.479z M246.312,71.677    c-1.694-0.261-3.165-1.342-3.584-6.135c-0.384-4.2,0.284-3.748,6.937-7.861c10.79-6.64,17.513-10.091,23.31-11.904    c4.313-1.36,6.006-1.603,6.006-0.836c0,0.261-0.489,0.609-1.1,0.802c-0.611,0.191-2.113,1.167-3.335,2.161    c-1.206,1.011-4.104,3.12-6.391,4.706c-4.994,3.416-10.075,8-11.96,10.771c-0.751,1.098-1.693,3.103-2.096,4.428    C252.86,71.921,251.725,72.478,246.312,71.677L246.312,71.677z M353.172,40.566c-0.316-0.488,4.574-3.225,5.01-2.79    c0.455,0.454-0.401,1.308-2.34,2.283C353.643,41.193,353.555,41.21,353.172,40.566L353.172,40.566z"/>
		<path fill="#C3C1CD" d="M335.448,89.419c-3.491-2.561-9.235-8.591-13.182-13.803c-1.869-2.493-3.615-4.671-3.876-4.828    c-0.263-0.157-0.472-2.423-0.472-5.037c0-3.678,0.14-4.602,0.593-4.149c1.065,1.064,1.974,0.628,5.762-2.754    c8.521-7.581,14.406-11.817,20.202-14.536c4.313-2.022,4.488-2.074,2.776-0.628c-1.832,1.569-1.273,2.214,0.979,1.134    c0.942-0.436,1.709-0.697,1.709-0.558c0,0.488-8.205,7.198-12.309,10.074c-0.942,0.662-2.968,2.318-4.487,3.66    c-1.519,1.36-4.452,3.992-6.531,5.821c-2.077,1.848-3.772,3.538-3.772,3.748c0,1.011,9.376,12.584,13.864,17.115    c4.225,4.27,4.907,5.16,4.383,5.787C340.075,91.686,338.033,91.303,335.448,89.419L335.448,89.419z M233.13,80.409    c-2.235-0.662-3.527-1.55-6.933-4.758c-1.851-1.726-3.457-3.137-3.579-3.137c-0.141,0-0.996,0.452-1.921,0.993    c-1.868,1.098-5.639,1.674-6.687,1.028c-0.733-0.452-0.699-0.505,3.021-3.556c1.012-0.836,1.833-1.83,1.833-2.196    c0-0.383-1.571-2.404-3.509-4.496c-5.291-5.682-6.478-8.069-4.365-8.732c1.519-0.488,3.736,1.185,8.119,6.135    c2.532,2.858,4.296,4.445,4.942,4.445c0.559,0,3.003-1.291,5.43-2.859c4.452-2.858,10.939-6.65,11.41-6.65    c0.14,0,1.428-0.415,1.428,0.649c0,2.065,0.459,2.035-5.085,5.811c-1.572,1.045-4.453,2.841-6.426,4.009    c-1.973,1.151-3.702,2.319-3.876,2.58c-0.384,0.626,1.903,2.998,5.238,5.438c3.946,2.875,5.378,4.322,5.099,5.089    C236.971,80.931,235.155,81.037,233.13,80.409L233.13,80.409z M244.479,69.027c-0.297-1.098-1.577-3.242-1.628-4.758l-0.088-2.754    l6.675-3.521c11.401-7.094,20.428-11.539,24.864-12.288l1.973-0.331l-1.432,0.993c-0.803,0.559-1.641,1.36-1.886,1.778    c-0.244,0.436-1.257,1.342-2.252,2.005c-0.995,0.662-2.602,1.741-3.544,2.37c-3.073,2.074-10.389,9.046-11.769,11.224    c-0.751,1.168-1.624,2.894-1.938,3.818c-1.013,2.894-3.335,4.514-4.278,2.998c-0.175-0.278-0.838-0.506-1.484-0.506    s-1.31,0.228-1.466,0.506C245.614,71.537,245.02,71.015,244.479,69.027L244.479,69.027z"/>
		<path fill="#C0BECD" d="M338.364,90.85c-2.863-0.715-10.423-8.018-16.867-16.262l-3.579-4.567v-4.166    c0-4.096,0.227-4.706,1.362-3.591c0.436,0.436,1.361-0.122,3.842-2.335c7.751-6.902,14.579-11.991,19.293-14.396    c2.48-1.255,3.091-1.308,3.091-0.261c0,0.61,0.313,0.731,1.361,0.486c1.241-0.278,1.153-0.104-1.012,1.901    c-1.292,1.203-4.854,4.096-7.875,6.414c-6.704,5.125-14.248,11.73-14.823,13.003c-0.315,0.713,0.226,1.777,2.444,4.775    c3.737,5.038,7.962,9.953,12.135,14.066c1.833,1.813,3.335,3.643,3.335,4.06c0,0.401-0.087,0.75-0.191,0.75    c-0.123,0-0.507,0.087-0.874,0.174C339.656,91.007,338.905,90.988,338.364,90.85L338.364,90.85z M232.641,80.13    c-1.537-0.488-3.457-1.794-6.059-4.147c-2.078-1.899-3.946-3.451-4.155-3.451c-0.192,0-1.013,0.435-1.833,0.976    c-1.729,1.134-6.652,1.412-6.635,0.366c0-0.331,1.1-1.342,2.461-2.213c1.642-1.081,2.444-1.935,2.444-2.632    c0-0.592-1.536-2.684-3.649-4.95c-2.025-2.178-4.033-4.722-4.487-5.682c-0.733-1.533-0.751-1.813-0.088-2.458    c0.664-0.662,0.961-0.61,2.672,0.42c1.048,0.643,3.527,2.979,5.482,5.211c3.772,4.287,4.784,5.071,5.99,4.671    c0.401-0.157,2.846-1.639,5.413-3.312c4.872-3.172,9.559-5.815,10.449-5.815c0.751,0,0.611,2.771-0.175,3.556    c-0.366,0.366-3.29,2.293-5.159,3.461c-1.851,1.185-4.539,2.894-5.971,3.799c-1.414,0.907-2.584,1.969-2.584,2.336    c0,0.384,1.676,1.987,3.719,3.573c6.268,4.811,6.827,5.352,6.478,6.223C236.586,81.037,235.644,81.054,232.641,80.13    L232.641,80.13z M249.246,69.708c-1.135-0.593-1.676-0.628-2.671-0.174c-0.978,0.453-1.344,0.436-1.659-0.07    c-0.594-0.941-2.501-5.647-2.309-6.867c0.262-1.83,21.883-13.805,28.378-15.878c2.881-0.941,4.592-0.766,2.462,0.244    c-0.751,0.348-1.362,0.941-1.362,1.308c0,0.384-0.664,0.923-1.467,1.203c-0.821,0.279-1.484,0.714-1.484,0.958    c0,0.244-1.344,1.412-2.985,2.597c-4.26,3.103-9.08,7.861-10.948,10.807c-2.584,4.079-2.793,4.444-3.405,5.612    C251.149,70.701,251.149,70.701,249.246,69.708L249.246,69.708z"/>
		<path fill="#B8B5C6" d="M336.234,89.525c-3.387-1.795-9.219-8.053-16.832-18.058c-0.803-1.063-0.995-2.055-0.995-5.246    c0-3.713,0.053-3.921,1.013-3.678c0.733,0.191,1.798-0.488,4.051-2.649c4.312-4.079,9.847-8.471,14.109-11.208    c4.591-2.929,4.784-2.997,5.115-1.778c0.175,0.663,0.664,1.03,1.416,1.03c1.029,0,0.925,0.208-1.031,1.847    c-1.205,1.011-3.771,3.049-5.727,4.531c-5.954,4.549-14.51,12.34-14.492,13.211c0.016,1.359,7.787,11.295,13.234,16.924    c2.811,2.911,5.029,5.317,4.925,5.353C340.094,90.152,337.054,89.977,336.234,89.525L336.234,89.525z M233.514,80.148    c-2.376-0.646-6.252-3.294-8.941-6.118c-1.711-1.778-2.147-1.83-4.365-0.523c-1.659,0.976-5.255,1.168-5.779,0.313    c-0.122-0.208,0.629-0.994,1.676-1.707c1.065-0.714,2.235-1.795,2.619-2.389c0.681-1.01,0.507-1.307-3.055-5.298    c-4.907-5.525-6.076-7.686-4.47-8.314c1.327-0.505,3.457,1.081,7.822,5.804c2.392,2.597,4.627,4.706,4.958,4.706    c0.332,0,2.13-0.994,4.017-2.179c9.953-6.322,13.912-8.269,14.321-7.86c1.482,1.48-1.391,4.579-12.733,10.961    c-1.746,0.994-2.828,1.936-2.828,2.459c0,1.028,2.147,3.102,6.408,6.187c3.352,2.44,4.19,3.399,3.684,4.201    C236.499,80.967,236.517,80.967,233.514,80.148L233.514,80.148z M244.758,68.47c-2.496-7.517-4.222-4.875,4.296-10.126    c8.032-4.984,16.902-9.673,20.498-10.894c1.729-0.575,3.231-0.976,3.318-0.871c0.105,0.105-1.03,0.941-2.514,1.865    c-1.484,0.941-2.811,2.039-2.951,2.457c-0.123,0.401-0.856,1.115-1.589,1.552c-1.869,1.098-10.965,10.091-10.983,10.841    c-0.035,1.516-2.741,3.799-5.168,4.357c-1.344,0.297-2.846,0.749-3.317,0.994C245.212,69.22,245.002,69.203,244.758,68.47    L244.758,68.47z"/>
		<path fill="#B0ADC2" d="M335.204,88.217c-2.775-1.69-8.607-7.651-12.239-12.496c-2.026-2.702-3.876-5.002-4.121-5.09    c-0.227-0.087-0.437-1.935-0.437-4.114c0-3.363,0.122-3.903,0.769-3.642c0.523,0.192,2.566-1.255,6.163-4.374    c9.76-8.454,12.083-9.831,13.393-7.914c0.244,0.383,0.646,0.349,1.344-0.087c1.188-0.732,2.165-0.801,1.747-0.104    c-0.175,0.261-1.973,1.726-4.016,3.225c-2.025,1.499-4.33,3.329-5.082,4.043c-1.518,1.429-2.583,2.371-7.297,6.414    c-1.694,1.447-3.074,2.946-3.074,3.33c0,1.045,8.276,11.694,13.008,16.75l4.226,4.496l-1.484,0.21    C337.212,88.984,336.059,88.724,335.204,88.217L335.204,88.217z M232.99,79.642c-2.462-0.662-3.143-1.15-7.613-5.385l-2.602-2.476    l-1.99,1.151c-1.624,0.924-2.375,1.081-4.051,0.784c-1.798-0.295-1.938-0.419-1.118-0.89c2.131-1.272,3.754-2.91,3.754-3.851    c0-0.54-1.553-2.649-3.492-4.706c-5.308-5.682-6.111-8.018-2.409-6.989c1.187,0.314,2.375,1.308,3.894,3.207    c1.187,1.499,3.143,3.625,4.33,4.707l2.147,1.986l2.811-1.568c1.554-0.871,3.807-2.302,5.029-3.172    c2.025-1.465,9.736-5.712,10.383-5.712c0.139,0,1.055-0.262,1.055,0.401c0,0.783-4.122,3.968-5.152,4.753    c-1.886,1.428-7.211,4.793-9.848,6.222c-1.135,0.61-1.851,1.359-1.851,1.917c0,0.941,2.374,3.121,7.508,6.868    c1.554,1.133,2.829,2.388,2.829,2.789C236.604,80.513,236.168,80.513,232.99,79.642L232.99,79.642z M243.287,65.455    c-0.855-2.788-0.855-2.911,0.035-3.782c2.654-2.614,25.462-14.607,26.754-14.17c0.314,0.104-1.169,1.447-3.282,2.98    c-2.113,1.533-4.453,3.469-5.169,4.27c-0.733,0.819-2.007,1.847-2.829,2.266c-0.821,0.418-1.484,1.098-1.484,1.482    c0,0.539-0.383,0.644-1.483,0.418c-1.327-0.261-1.484-0.174-1.484,0.976c0,0.679-0.21,1.394-0.489,1.55    c-0.262,0.174-0.489,0.714-0.489,1.202c0,0.506-0.454,1.028-0.995,1.168c-0.577,0.14-0.978,0.662-0.978,1.272    c0,1.081-0.715,1.395-1.239,0.541c-0.193-0.314-0.682-0.278-1.379,0.123c-1.03,0.592-1.328,0.68-2.637,0.818    c-0.332,0.017-0.681,0.436-0.786,0.907C245.247,67.965,243.776,67.093,243.287,65.455L243.287,65.455z M338.749,49.105    c0.156-0.156,0.593-0.174,0.943-0.034c0.402,0.156,0.278,0.261-0.298,0.295C338.871,49.385,338.591,49.262,338.749,49.105    L338.749,49.105z"/>
		<path fill="#AEAAC1" d="M333.598,83.895c-0.734-0.418-1.834-1.567-2.462-2.561c-1.118-1.778-3.597-3.33-4.261-2.684    c-0.174,0.191,0.052,0.628,0.524,0.976c0.472,0.348,0.874,0.767,0.874,0.958c0,0.175,0.714,0.959,1.588,1.744    c0.89,0.783,1.483,1.55,1.344,1.69c-0.332,0.331-5.902-5.055-5.902-5.682c0-0.227-0.855-1.36-1.902-2.511    c-2.602-2.839-3.318-4.287-2.462-4.845c0.524-0.348,0.419-0.645-0.558-1.395l-1.223-0.958l1.1-0.783    c1.502-1.065,1.432-2.214-0.122-2.214c-0.978,0-1.24-0.244-1.24-1.22c0-0.82,0.279-1.238,0.82-1.238    c0.455,0,2.725-1.726,5.046-3.835c5.919-5.351,9.866-8.453,10.756-8.453c0.61,0,0.646,0.14,0.14,0.732    c-0.839,1.011,0.366,1.446,2.13,0.767c1.886-0.715,1.641-0.314-1.1,1.796c-1.345,1.028-4.19,3.416-6.32,5.315    c-2.148,1.882-4.82,4.201-5.955,5.124c-1.345,1.098-2.06,2.075-2.06,2.841c0,1.29,6.564,10.214,10.511,14.275    C335.519,84.47,335.745,85.133,333.598,83.895L333.598,83.895z M325.531,74.728c-2.55-2.092-3.021-1.185-0.874,1.637    c1.31,1.709,1.327,1.727,1.815,0.627C326.893,76.069,326.736,75.721,325.531,74.728L325.531,74.728z M323.227,64.74    c0.105-0.314-0.158-0.575-0.595-0.575c-0.418,0-0.767,0.348-0.767,0.766C321.864,65.803,322.93,65.664,323.227,64.74    L323.227,64.74z M325.024,62.561c0.593-0.609,1.903-1.778,2.898-2.58c1.014-0.819,1.729-1.76,1.59-2.091    c-0.139-0.384,0.191-0.61,0.891-0.61c1.239,0,2.305-0.853,2.305-1.83c0-1.133-1.048-0.68-3.563,1.569    c-1.362,1.219-2.637,2.213-2.846,2.213c-0.21,0-0.647,0.663-0.996,1.482c-0.332,0.801-0.751,1.376-0.941,1.255    c-0.577-0.367-1.66,0.575-1.31,1.149C323.54,63.886,323.82,63.816,325.024,62.561L325.024,62.561z M334.68,53.29    c0-0.716-0.856-0.506-1.17,0.261c-0.174,0.488-0.035,0.628,0.454,0.452C334.348,53.846,334.68,53.532,334.68,53.29L334.68,53.29z     M233.095,79.224c-3.091-0.75-7.648-4.497-6.757-5.561c0.401-0.488,0.436-0.837,0.087-1.063c-0.297-0.175-0.698-0.872-0.891-1.552    c-0.209-0.68-0.296-1.115-0.192-0.976c0.105,0.14,0.961,1.098,1.903,2.161c0.943,1.047,1.449,1.76,1.118,1.569    c-0.384-0.227-0.629-0.07-0.629,0.384c0,1.028,1.013,1.551,1.502,0.767c0.297-0.488,1.048-0.192,3.143,1.255    C237.442,79.678,237.581,80.322,233.095,79.224L233.095,79.224z M231.191,76.975c0-0.244-0.227-0.592-0.489-0.766    c-0.28-0.157-0.506,0.035-0.506,0.471c0,0.418,0.227,0.766,0.506,0.766C230.965,77.446,231.191,77.237,231.191,76.975    L231.191,76.975z M217.013,73.176c-0.384-0.157,0-0.784,1.118-1.777c1.763-1.552,2.252-3.4,1.117-4.15    c-1.17-0.732-6.792-7.058-6.792-7.633c0-0.314,0.891,0.295,1.973,1.342c1.379,1.342,1.973,1.673,1.973,1.115    c0-0.453-0.402-1.098-0.908-1.446c-1.048-0.75-1.885-2.859-1.117-2.859c0.278,0,0.785,0.4,1.135,0.907    c1.832,2.614,7.612,8.436,8.363,8.436c0.96,0,3.422-1.359,7.071-3.886c2.776-1.935,9.28-5.727,9.489-5.518    c0.07,0.087,0.035,0.697-0.104,1.376c-0.227,1.185-2.227,2.537-10.258,7.627c-1.327,0.835-2.689,1.359-3.108,1.185    c-1.083-0.401-2.811,0.61-2.48,1.463c0.472,1.221-0.401,0.75-1.432-0.766c-0.542-0.803-1.257-1.569-1.589-1.708    c-0.733-0.278-0.855,1.011-0.14,1.464c0.279,0.157,0.506,0.732,0.506,1.255c0,0.628,0.332,0.958,0.978,0.958    c0.908,0,1.466,0.923,0.611,1.011c-1.362,0.14-2.165,0.471-2.846,1.149C219.807,73.49,218.27,73.682,217.013,73.176    L217.013,73.176z M221.081,71.049c0.175-0.279,0.088-0.488-0.174-0.488c-0.28,0-0.646,0.209-0.804,0.488    c-0.174,0.261-0.087,0.488,0.192,0.488C220.558,71.537,220.924,71.311,221.081,71.049L221.081,71.049z M230.196,65.368    c0-0.123-0.21-0.227-0.489-0.227c-0.262,0-0.489,0.244-0.489,0.523c0,0.278,0.227,0.383,0.489,0.209    C229.987,65.716,230.196,65.472,230.196,65.368L230.196,65.368z M218.969,64.548c-0.366-0.348-0.594-0.382-0.594-0.07    c0,0.646,0.577,1.238,0.908,0.907C219.423,65.245,219.283,64.861,218.969,64.548L218.969,64.548z M224.539,73.019    c-0.175-0.278-0.07-0.505,0.209-0.505c0.297,0,0.524,0.227,0.524,0.505c0,0.262-0.087,0.488-0.21,0.488    C224.94,73.507,224.696,73.281,224.539,73.019L224.539,73.019z M242.99,64.391c-0.733-2.248,0.406-2.422,6.395-6.1    c10.79-6.605,24.777-13.438,18.089-8.819c-1.31,0.906-3.597,2.684-5.064,3.939c-1.466,1.255-3.998,2.911-5.604,3.678    c-1.607,0.785-2.934,1.673-2.951,2.004c0,0.872-2.48,3.103-4.068,3.678c-0.733,0.278-1.345,0.802-1.345,1.186    c0,0.522-2.828,2.179-3.719,2.179C244.636,66.135,243.304,65.351,242.99,64.391L242.99,64.391z"/>
		<path fill="#ACA9BC" d="M332.113,82.239c-1.483-2.317-1.483-2.544,0.019-1.132c1.553,1.429,1.955,2.23,1.116,2.23    C333.004,83.337,332.498,82.849,332.113,82.239L332.113,82.239z M326.124,79.607c-0.507-0.697-0.751-1.395-0.542-1.585    c0.192-0.193,0.453-0.053,0.577,0.313c0.14,0.348,0.698,1.063,1.257,1.586c0.733,0.679,0.821,0.959,0.331,0.941    C327.347,80.863,326.631,80.288,326.124,79.607L326.124,79.607z M234.438,78.77c-1.012-0.767-1.483-0.907-1.641-0.471    c-0.261,0.732-1.92,0.82-2.339,0.123c-0.175-0.262,0.018-0.489,0.419-0.489c1.275,0,1.362-0.889,0.227-1.934    c-0.593-0.558-0.925-1.011-0.716-1.011c0.471,0,3.615,2.302,5.186,3.801C237.058,80.2,236.325,80.183,234.438,78.77L234.438,78.77    z M328.691,78.213c-0.716-0.627-1.432-1.569-1.606-2.109c-0.175-0.54-1.31-1.986-2.532-3.223c-2.06-2.092-2.723-3.312-1.798-3.312    c0.437,0,7.648,9.359,7.386,9.603C330.053,79.26,329.408,78.823,328.691,78.213L328.691,78.213z M321.41,73.089    c-0.332-0.627-0.525-1.238-0.402-1.359c0.384-0.383,1.449,1.237,1.223,1.883C322.108,74.013,321.794,73.82,321.41,73.089    L321.41,73.089z M219.37,72.827c0-0.122,0.332-0.331,0.751-0.487c0.436-0.175,0.646-0.088,0.471,0.191    C220.296,73.002,219.37,73.211,219.37,72.827L219.37,72.827z M219.859,69.08c0-0.278,0.21-0.488,0.489-0.488    c0.279,0,0.489,0.21,0.489,0.488c0,0.262-0.21,0.488-0.489,0.488C220.069,69.568,219.859,69.342,219.859,69.08L219.859,69.08z     M223.806,67.598c0-0.261,0.192-0.488,0.436-0.488c0.262,0,0.874-0.123,1.362-0.278c0.821-0.262,0.821-0.227-0.053,0.487    C224.452,68.208,223.806,68.313,223.806,67.598L223.806,67.598z M217.642,65.629c-0.786-0.802-1.17-1.463-0.873-1.463    c0.314,0,1.03,0.662,1.606,1.463c0.577,0.818,0.978,1.481,0.873,1.481C219.144,67.11,218.41,66.447,217.642,65.629L217.642,65.629    z M219.37,64.409c-1.466-1.481-2.497-2.841-2.305-3.05c0.349-0.349,1.066,0.314,4.243,3.939    C223.77,68.069,222.373,67.458,219.37,64.409L219.37,64.409z M242.972,64.339c-0.506-1.534-0.454-1.882,0.35-2.649    c2.444-2.371,24.589-14.083,25.741-13.7c0.297,0.104-0.82,1.064-2.497,2.143c-1.676,1.081-3.719,2.563-4.557,3.26    c-1.432,1.236-3.754,2.684-6.862,4.27c-0.785,0.401-1.519,1.133-1.659,1.639c-0.14,0.505-0.559,0.924-0.943,0.924    c-0.384,0-0.821,0.313-0.96,0.714c-0.157,0.382-0.977,1.167-1.833,1.707c-0.856,0.541-2.375,1.552-3.371,2.232l-1.815,1.22    L242.972,64.339L242.972,64.339z M232.885,64.391c0.523-0.401,1.187-0.715,1.484-0.715c0.279,0.019,0.087,0.35-0.437,0.75    c-0.524,0.384-1.187,0.715-1.484,0.698C232.169,65.124,232.361,64.791,232.885,64.391L232.885,64.391z M229.952,64.166    c0.175-0.28,0.524-0.506,0.803-0.506c0.28,0,0.35,0.227,0.192,0.506c-0.174,0.261-0.524,0.488-0.803,0.488    C229.882,64.653,229.794,64.426,229.952,64.166L229.952,64.166z M318.896,63.92c0-0.452,0.279-0.732,0.629-0.626    c0.698,0.244,0.611,1.027-0.123,1.272C319.123,64.653,318.896,64.356,318.896,63.92L318.896,63.92z M326.299,62.213    c0.943-0.784,1.815-1.325,1.92-1.221c0.279,0.297-2.549,2.684-3.16,2.667C324.797,63.642,325.338,62.998,326.299,62.213    L326.299,62.213z M214.761,62.839c-0.175-0.173-0.331-0.557-0.331-0.836c0-0.296,0.227-0.278,0.594,0.087    c0.314,0.314,0.471,0.698,0.332,0.837C215.215,63.067,214.936,63.032,214.761,62.839L214.761,62.839z M233.897,61.48    c0.821-0.679,1.729-1.253,2.026-1.253c0.314,0,1.152-0.471,1.886-1.047c1.606-1.255,3.046-1.683,2.348,0.183    c-0.437,1.115-1.719,1.91-2.086,1.335c-0.384-0.61-0.855-0.506-3.056,0.662l-2.602,1.395L233.897,61.48L233.897,61.48z     M321.864,62.334c0-0.278,1.274-1.586,2.828-2.894c1.555-1.307,3.72-3.223,4.802-4.234c1.083-1.028,2.184-1.865,2.462-1.865    c0.454,0.018-0.577,1.046-5.902,5.838C322.597,62.3,321.864,62.839,321.864,62.334L321.864,62.334z M214.936,58.989    c-0.367-0.419-0.401-0.733-0.122-0.733c0.279,0,0.629,0.332,0.786,0.733c0.157,0.418,0.21,0.749,0.105,0.749    C215.616,59.737,215.267,59.406,214.936,58.989L214.936,58.989z M331.991,57.228c0.803-0.837,1.886-1.761,2.427-2.039    c0.54-0.297,0.105,0.4-0.978,1.516c-1.082,1.115-2.183,2.039-2.428,2.039C330.751,58.745,331.206,58.064,331.991,57.228    L331.991,57.228z M333.196,52.383c0-0.261,0.436-0.715,0.977-1.011c0.646-0.348,0.995-0.348,0.995-0.034    c0,0.261-0.454,0.732-0.995,1.011C333.545,52.696,333.196,52.696,333.196,52.383L333.196,52.383z"/>
		<path fill="#9795AA" d="M243.322,64.321c-0.175-0.174-0.314-0.836-0.314-1.463c0-0.924,2.223-1.866,8.054-5.317    c3.895-2.3,7.928-4.531,8.993-4.949l1.938-0.75l-1.815,1.62c-0.995,0.907-3.405,2.51-5.343,3.574    c-1.956,1.064-3.929,2.44-4.418,3.033c-1.03,1.324-4.871,4.584-5.395,4.584C244.828,64.653,243.514,64.496,243.322,64.321    L243.322,64.321z M265.187,49.89c0.419-0.261,0.961-0.47,1.24-0.47c0.262,0,0.157,0.209-0.245,0.47    c-0.419,0.262-0.96,0.488-1.24,0.488C264.681,50.378,264.786,50.152,265.187,49.89L265.187,49.89z"/>
		<path fill="#7C7B92" d="M243.322,62.945c-0.297-0.767,1.209-1.255,3.566-2.458c2.375-1.202,2.322-0.716-0.139,1.342    C245.142,63.171,243.514,63.468,243.322,62.945L243.322,62.945z"/>
		<g>
			<path fill="#333366" d="M317.217,63.834c0,0.919-0.528,1.516-0.783,1.516c-0.497,0-1.787-1.458-2.924-3.235l-2.065-3.233     l2.093-2.239c1.171-1.244,2.507-2.025,3.004-1.706c0.261,0.16,0.675-0.368,0.675-1.295v-7.056l-3.59,3.269     c-2.06,1.919-4.309,3.447-4.948,3.483c-0.639,0-3.029-1.756-5.512-3.661c-10.636-8.158-17.916-10.764-29.712-8.276     c-8.847,1.848-19.356,7.246-25.075,11.048c-2.38,1.6-4.512,2.879-4.761,2.879c-0.248,0-0.441-3.589-0.441-8.032     c0-0.697-0.004-1.355-0.004-1.978v41.951c0-0.08,0.004-0.152,0.004-0.236c0-1.139,0.735-1.066,3.754,0.462     c7.532,3.731,24.545,1.884,34.35-3.767c5.436-3.165,12.681-8.922,19.787-15.747c3.232-3.092,5.576-4.656,6.145-4.088     c0.461,0.534,2.877,4.018,5.364,7.785l4.533,6.789l0.108-0.641V63.834z M299.253,61.619c-6.964,6.22-27.605,21.54-32.046,23.813     c-7.993,4.087-15.916,3.271-21.778-2.238c-2.061-1.92-2.274-3.021-2.203-11.73l0.036-7.596c0,0,1.721-2.202,8.207-7.19     c6.487-4.989,24.442-13.399,29.629-13.399c5.969,0,12.258,3.306,17.976,9.418l4.62,4.976L299.253,61.619z"/>
			<rect x="316.858" y="36.429" fill="#333366" width="1.967" height="55.186"/>
			<rect x="241.345" y="36.429" fill="#333366" width="1.967" height="55.186"/>
		</g>
	</g>
</g>
</svg>